{
  "status": 0,
  "msg": "ok",
  "data": {
    "pageIndex": 1,
    "pageSize": 10,
    "totalCount": 37,
    "records": [
      {
        "labelValName": "客户发展本部&AIO",
        "labelValCode": "00100249&01002275",
        "labelCode": "organization",
        "labelName": "组织",
        "applyNodeDescStr": "区县&SPU 目标定版页,区县&ltem 目标定版页,投资测算结果比对页",
        "labelValDesc": "2333",
        "labelValStatus": 1,
        "labelValSort": 1,
        "isDefault": 1,
        "createdType": 2,
        "isDefaultDesc": "是",
        "labelValStatusDesc": "是",
        "createdTypeDesc": "自动",
        "isDeletedDesc": "否"
      },
      {
        "labelValName": "H事业部",
        "labelValCode": "01002607",
        "labelCode": "organization",
        "labelName": "组织",
        "applyNodeDescStr": "区县&SPU 目标定版页,区县&ltem 目标定版页,投资测算结果比对页",
        "labelValDesc": "",
        "labelValStatus": 1,
        "labelValSort": 2,
        "isDefault": 0,
        "createdType": 2,
        "isDefaultDesc": "否",
        "labelValStatusDesc": "是",
        "createdTypeDesc": "自动",
        "isDeletedDesc": "否"
      },
      {
        "labelValName": "大众",
        "labelValCode": "GT&MT",
        "labelCode": "channel",
        "labelName": "渠道",
        "applyNodeDescStr": "区县&SPU 目标定版页,区县&ltem 目标定版页,投资测算结果比对页",
        "labelValDesc": "",
        "labelValStatus": 1,
        "labelValSort": 1,
        "isDefault": 1,
        "createdType": 2,
        "isDefaultDesc": "是",
        "labelValStatusDesc": "是",
        "createdTypeDesc": "自动",
        "isDeletedDesc": "否"
      },
      {
        "labelValName": "餐饮",
        "labelValCode": "R",
        "labelCode": "channel",
        "labelName": "渠道",
        "applyNodeDescStr": "区县&SPU 目标定版页,区县&ltem 目标定版页,投资测算结果比对页",
        "labelValDesc": "",
        "labelValStatus": 1,
        "labelValSort": 2,
        "isDefault": 0,
        "createdType": 2,
        "isDefaultDesc": "否",
        "labelValStatusDesc": "是",
        "createdTypeDesc": "自动",
        "isDeletedDesc": "否"
      },
      {
        "labelValName": "3分",
        "labelValCode": "NUMBER_3",
        "labelCode": "road",
        "labelName": "百亿目标路径",
        "applyNodeDescStr": "区县&SPU 目标定版页,区县&ltem 目标定版页,投资测算结果比对页",
        "labelValDesc": "",
        "labelValStatus": 1,
        "labelValSort": 3,
        "isDefault": 1,
        "createdType": 2,
        "isDefaultDesc": "是",
        "labelValStatusDesc": "是",
        "createdTypeDesc": "自动",
        "isDeletedDesc": "否"
      },
      {
        "labelValName": "4分",
        "labelValCode": "NUMBER_4",
        "labelCode": "road",
        "labelName": "百亿目标路径",
        "applyNodeDescStr": "区县&SPU 目标定版页,区县&ltem 目标定版页,投资测算结果比对页",
        "labelValDesc": "",
        "labelValStatus": 1,
        "labelValSort": 4,
        "isDefault": 0,
        "createdType": 2,
        "isDefaultDesc": "否",
        "labelValStatusDesc": "是",
        "createdTypeDesc": "自动",
        "isDeletedDesc": "否"
      },
      {
        "labelValName": "5分",
        "labelValCode": "NUMBER_5",
        "labelCode": "road",
        "labelName": "百亿目标路径",
        "applyNodeDescStr": "区县&SPU 目标定版页,区县&ltem 目标定版页,投资测算结果比对页",
        "labelValDesc": "",
        "labelValStatus": 1,
        "labelValSort": 5,
        "isDefault": 0,
        "createdType": 2,
        "isDefaultDesc": "否",
        "labelValStatusDesc": "是",
        "createdTypeDesc": "自动",
        "isDeletedDesc": "否"
      },
      {
        "labelValName": "1分",
        "labelValCode": "NUMBER_1",
        "labelCode": "road",
        "labelName": "百亿目标路径",
        "applyNodeDescStr": "区县&SPU 目标定版页,区县&ltem 目标定版页,投资测算结果比对页",
        "labelValDesc": "",
        "labelValStatus": 1,
        "labelValSort": 1,
        "isDefault": 0,
        "createdType": 2,
        "isDefaultDesc": "否",
        "labelValStatusDesc": "是",
        "createdTypeDesc": "自动",
        "isDeletedDesc": "否"
      },
      {
        "labelValName": "2分",
        "labelValCode": "NUMBER_2",
        "labelCode": "road",
        "labelName": "百亿目标路径",
        "applyNodeDescStr": "区县&SPU 目标定版页,区县&ltem 目标定版页,投资测算结果比对页",
        "labelValDesc": "NUMBER_2",
        "labelValStatus": 1,
        "labelValSort": 2,
        "isDefault": 0,
        "createdType": 2,
        "isDefaultDesc": "否",
        "labelValStatusDesc": "是",
        "createdTypeDesc": "自动",
        "isDeletedDesc": "否"
      },
      {
        "labelValName": "90",
        "labelValCode": "1",
        "labelCode": "canshu",
        "labelName": "canshu",
        "applyNodeDescStr": "投资测算结果比对页",
        "labelValDesc": "",
        "labelValStatus": 0,
        "labelValSort": 0,
        "isDefault": 1,
        "createdType": 1,
        "isDefaultDesc": "是",
        "labelValStatusDesc": "否",
        "createdTypeDesc": "手动",
        "isDeletedDesc": "否"
      }
    ],
    "total": 37,
    "current": 1,
    "currentPage": 1,
    "totalPage": 4,
    "pages": 4,
    "size": 10
  }
}
